D:\Desenvolvimento\workspaces\pokeapp\src\main\java\br\com\pokeapimanager\app\config\ServiceConfig.java
D:\Desenvolvimento\workspaces\pokeapp\src\main\java\br\com\pokeapimanager\app\controller\TesteController.java
D:\Desenvolvimento\workspaces\pokeapp\src\main\java\br\com\pokeapimanager\app\config\JPAConfig.java
D:\Desenvolvimento\workspaces\pokeapp\src\main\java\br\com\pokeapimanager\app\config\WebAppInitializer.java
D:\Desenvolvimento\workspaces\pokeapp\src\main\java\br\com\pokeapimanager\app\config\MvcConfig.java
